<?xml version="1.0" encoding="utf-8"?>
<!-- Generator: Adobe Illustrator 16.0.0, SVG Export Plug-In . SVG Version: 6.00 Build 0)  -->
<!DOCTYPE svg PUBLIC "-//W3C//DTD SVG 1.1//EN" "http://www.w3.org/Graphics/SVG/1.1/DTD/svg11.dtd">
<svg version="1.1" id="Layer_1" 
  xmlns="http://www.w3.org/2000/svg" 
  xmlns:xlink="http://www.w3.org/1999/xlink" x="0px" y="0px" width="100%" height="100%" viewBox="0 0 26 26" enable-background="new 0 0 25.512 25.512" xml:space="preserve">
  <g>
    <path d="M12.756,0C5.711,0,0,5.711,0,12.756s5.711,12.756,12.756,12.756s12.756-5.711,12.756-12.756S19.801,0,12.756,0z
		 M15.836,6.095c0-0.138,0.112-0.25,0.25-0.25h2.665c0.138,0,0.25,0.112,0.25,0.25v2.664c0,0.138-0.112,0.25-0.25,0.25
		s-0.25-0.112-0.25-0.25V6.345h-2.165v0.638c0,0.138-0.112,0.25-0.25,0.25s-0.25-0.112-0.25-0.25V6.095z M19.889,12.535
		c0,0.138-0.112,0.25-0.25,0.25h-0.638v6.409c0,0.383-0.312,0.694-0.694,0.694H7.205c-0.383,0-0.694-0.312-0.694-0.694v-6.409H5.872
		c-0.138,0-0.25-0.112-0.25-0.25V10.98c0-0.078,0.036-0.151,0.098-0.198l6.514-4.995c0.335-0.22,0.726-0.208,1.029-0.011
		l6.528,5.006c0.062,0.047,0.098,0.121,0.098,0.198V12.535z"/>
    <path d="M12.522,6.194l-6.4,4.909v1.182h0.639c0.138,0,0.25,0.112,0.25,0.25v6.659c0,0.107,0.087,0.194,0.194,0.194h11.102
		c0.107,0,0.194-0.087,0.194-0.194v-6.659c0-0.138,0.112-0.25,0.25-0.25h0.638v-1.182l-6.415-4.92
		C12.865,6.114,12.663,6.102,12.522,6.194z M17.688,18.677H7.767v-0.5h9.921V18.677z"/>
  </g>
</svg>
