<?xml version="1.0" encoding="utf-8"?>
<!-- Generator: Adobe Illustrator 16.0.0, SVG Export Plug-In . SVG Version: 6.00 Build 0)  -->
<!DOCTYPE svg PUBLIC "-//W3C//DTD SVG 1.1//EN" "http://www.w3.org/Graphics/SVG/1.1/DTD/svg11.dtd">
<svg version="1.1" id="Layer_1" 
  xmlns="http://www.w3.org/2000/svg" 
  xmlns:xlink="http://www.w3.org/1999/xlink" x="0px" y="0px" width="100%" height="100%" viewBox="0 0 20 20" enable-background="new 0 0 17.008 17.008" xml:space="preserve">
  <path d="M8.504,17.008C3.815,17.008,0,13.193,0,8.504C0,3.815,3.815,0,8.504,0c4.689,0,8.504,3.815,8.504,8.504
	C17.008,13.193,13.193,17.008,8.504,17.008z M8.504,0.5C4.09,0.5,0.5,4.09,0.5,8.504c0,4.413,3.59,8.004,8.004,8.004
	c4.413,0,8.004-3.591,8.004-8.004C16.508,4.09,12.917,0.5,8.504,0.5z"/>
  <path d="M9.881,8.711H8.908V7.688c0-0.404-0.328-0.732-0.732-0.732H8.095V5.853H7.197v1.103H7.116c-0.404,0-0.732,0.328-0.732,0.732
	v1.024H4.959V8.029H4.011v3.319H4.96v-0.684h4.921c0.643,0,1.164,0.523,1.164,1.164v0.814h1.953v-0.814
	C12.998,10.109,11.6,8.711,9.881,8.711"/>
  <path d="M5.508,5.633c0.256,0,0.476-0.152,0.576-0.37h0.985c0.1,0.218,0.32,0.37,0.576,0.37s0.476-0.152,0.576-0.37h0.986
	c0.1,0.218,0.318,0.37,0.575,0.37c0.351,0,0.636-0.284,0.636-0.635s-0.285-0.635-0.636-0.635c-0.257,0-0.476,0.152-0.575,0.37H8.221
	c-0.1-0.218-0.32-0.37-0.576-0.37s-0.476,0.152-0.576,0.37H6.084c-0.1-0.218-0.32-0.37-0.576-0.37c-0.35,0-0.634,0.284-0.634,0.635
	S5.158,5.633,5.508,5.633"/>
</svg>
